2011/09/06 15:41:49 [emerg] 9761#0: bind() to 0.0.0.0:80 failed (98: Address already in use)
2011/09/06 15:41:49 [emerg] 9761#0: bind() to 0.0.0.0:80 failed (98: Address already in use)
2011/09/06 15:41:49 [emerg] 9761#0: bind() to 0.0.0.0:80 failed (98: Address already in use)
2011/09/06 15:41:49 [emerg] 9761#0: bind() to 0.0.0.0:80 failed (98: Address already in use)
2011/09/06 15:41:49 [emerg] 9761#0: bind() to 0.0.0.0:80 failed (98: Address already in use)
2011/09/06 15:41:49 [emerg] 9761#0: still could not bind()
